# .scale 100 100
# .ballSpawn 0 0
# .redSpawn -5 0
# .redGoal -10 -2
# .blueSpawn 5 0
# .blueGoal 10 2
# .slingpoint -7.5 4.5
# .slingpoint 7.5 -4.5
# .slingpoint 3 2.25
# .slingpoint -3 -2.25
# Blender v2.65 (sub 0) OBJ File: 'rink3.blend'
# www.blender.org
v -15.000000 -5.000000 0.000000
v 13.000000 -5.000000 0.000000
v 16.000000 -2.000000 0.000000
v -7.000000 -5.000000 0.000000
v 15.000000 5.000000 0.000000
v -5.000000 -5.000000 0.000000
v 4.000000 2.000000 0.000000
v -13.000000 -5.000000 0.000000
v -1.000000 -5.000000 0.000000
v -12.000000 -8.000000 0.000000
v -2.000000 -2.000000 0.000000
v 11.000000 3.000000 0.000000
v -18.000000 9.000000 0.000000
v 16.000000 2.000000 0.000000
v -8.000000 -8.000000 0.000000
v -15.000000 5.000000 0.000000
v 15.000000 -5.000000 0.000000
v 8.000000 8.000000 0.000000
v -16.000000 -2.000000 0.000000
v 18.000000 -9.000000 0.000000
v 12.000000 4.000000 0.000000
v 2.000000 2.000000 0.000000
v 12.000000 8.000000 0.000000
v 1.000000 5.000000 0.000000
v -4.000000 -2.000000 0.000000
v -16.000000 2.000000 0.000000
v 13.000000 5.000000 0.000000
v -10.000000 -4.000000 0.000000
v -13.000000 5.000000 0.000000
v 5.000000 5.000000 0.000000
v -9.000000 -3.000000 0.000000
v 7.000000 5.000000 0.000000
v 1.000000 -5.000000 0.000000
v 12.000000 -8.000000 0.000000
v 15.000000 0.000000 0.000000
v 18.000000 9.000000 0.000000
v 2.000000 -8.000000 0.000000
v 11.000000 1.000000 0.000000
v -2.000000 8.000000 0.000000
v -18.000000 -9.000000 0.000000
v -15.000000 0.000000 0.000000
v -12.000000 8.000000 0.000000
v -1.000000 5.000000 0.000000
v -11.000000 -3.000000 0.000000
v 10.000000 4.000000 0.000000
v 9.000000 3.000000 0.000000
v -12.000000 -4.000000 0.000000
v -11.000000 -1.000000 0.000000
v -12.000000 -2.000000 0.000000
v 12.000000 2.000000 0.000000
v -7.000000 4.000000 0.000000
v -9.000000 3.000000 0.000000
v -6.000000 6.000000 0.000000
v -8.000000 5.000000 0.000000
v 8.000000 -5.000000 0.000000
v 6.000000 -6.000000 0.000000
v 9.000000 -3.000000 0.000000
v 7.000000 -4.000000 0.000000
s off
f 2 20 34
f 27 23 36
f 20 2 17
f 40 1 8
f 13 29 16
f 14 5 36
f 14 36 20
f 35 14 3
f 14 20 3
f 20 17 3
f 8 10 40
f 36 42 13
f 36 23 42
f 23 39 42
f 18 43 39
f 23 18 39
f 18 32 43
f 32 24 43
f 30 22 24
f 32 30 24
f 30 7 22
f 29 13 42
f 40 13 26
f 13 16 26
f 40 26 19
f 26 41 19
f 19 1 40
f 6 25 11
f 6 11 9
f 15 4 6
f 15 6 9
f 15 9 33
f 15 33 37
f 40 10 15
f 40 15 37
f 40 37 34
f 20 40 34
f 36 5 27
f 21 12 46
f 21 46 45
f 31 28 47
f 31 47 44
f 44 47 49
f 44 49 48
f 51 52 54
f 51 54 53
f 55 56 58
f 55 58 57
f 50 38 12
f 50 12 21
