# .scale 50 50
# .ballSpawn 0 0
# .redSpawn -5 0
# .redGoal -11 0
# .blueSpawn 5 0
# .blueGoal 11 0
# .slingpoint -7 4.75
# .slingpoint 7 -4.75
# Blender v2.65 (sub 0) OBJ File: 'rink5.blend'
# www.blender.org
v -6.000000 6.999999 0.000000
v -0.166514 -5.750000 0.000000
v -1.981827 -6.467159 0.000000
v -3.951555 -6.865499 0.000000
v -6.000000 -7.000001 0.000000
v -8.048454 -6.865498 0.000000
v -10.018183 -6.467157 0.000000
v -11.833494 -5.820287 0.000000
v -13.424627 -4.949746 0.000000
v -14.730436 -3.888989 0.000000
v -15.700739 -2.678781 0.000000
v -16.298248 -1.365628 0.000000
v -16.500004 0.000005 0.000000
v -16.298244 1.365638 0.000000
v -15.700730 2.678789 0.000000
v -14.730425 3.888997 0.000000
v -13.424612 4.949752 0.000000
v -11.833477 5.820291 0.000000
v -10.018162 6.467159 0.000000
v -8.048433 6.865497 0.000000
v -6.000000 7.999998 0.000000
v -6.000000 -8.000002 0.000000
v -8.341091 -7.846283 0.000000
v -10.592207 -7.391037 0.000000
v -12.666849 -6.651756 0.000000
v -14.485289 -5.656853 0.000000
v -15.977641 -4.444559 0.000000
v -17.086559 -3.061464 0.000000
v -17.769428 -1.560718 0.000000
v -18.000004 0.000006 0.000000
v -17.769421 1.560729 0.000000
v -17.086550 3.061474 0.000000
v -15.977629 4.444568 0.000000
v -14.485272 5.656859 0.000000
v -12.666830 6.651761 0.000000
v -10.592187 7.391039 0.000000
v -8.341068 7.846282 0.000000
v 6.000000 -7.000001 0.000000
v 0.166516 5.750000 0.000000
v 1.981828 6.467160 0.000000
v 3.951556 6.865499 0.000000
v 6.000000 6.999999 0.000000
v 8.048433 6.865497 0.000000
v 10.018162 6.467159 0.000000
v 11.833477 5.820291 0.000000
v 13.424612 4.949752 0.000000
v 14.730425 3.888997 0.000000
v 15.700730 2.678789 0.000000
v 16.298244 1.365638 0.000000
v 16.500004 0.000005 0.000000
v 16.298248 -1.365628 0.000000
v 15.700739 -2.678781 0.000000
v 14.730436 -3.888989 0.000000
v 13.424627 -4.949746 0.000000
v 11.833494 -5.820287 0.000000
v 10.018183 -6.467157 0.000000
v 8.048454 -6.865498 0.000000
v 6.000000 -8.000002 0.000000
v 0.166517 7.000000 0.000000
v 6.000000 7.999998 0.000000
v 8.341068 7.846282 0.000000
v 10.592187 7.391039 0.000000
v 12.666830 6.651761 0.000000
v 14.485272 5.656859 0.000000
v 15.977629 4.444568 0.000000
v 17.086550 3.061474 0.000000
v 17.769421 1.560729 0.000000
v 18.000004 0.000006 0.000000
v 17.769428 -1.560718 0.000000
v 17.086559 -3.061464 0.000000
v 15.977641 -4.444559 0.000000
v 14.485289 -5.656853 0.000000
v 12.666849 -6.651756 0.000000
v 10.592207 -7.391037 0.000000
v 8.341091 -7.846283 0.000000
v -0.166515 -7.000000 0.000000
v 11.000000 -1.000000 0.000000
v 14.000000 0.000000 0.000000
v 12.000000 0.000000 0.000000
v 11.000000 1.000000 0.000000
v -11.000000 -1.000000 0.000000
v -12.000000 0.000000 0.000000
v -14.000000 0.000000 0.000000
v -11.000000 1.000000 0.000000
v 8.000000 -5.000000 0.000000
v 8.000000 -3.000000 0.000000
v 6.000000 -5.000000 0.000000
v -8.000000 3.000000 0.000000
v -6.000000 5.000000 0.000000
v -8.000000 5.000000 0.000000
v 4.000000 -1.000000 0.000000
v 4.000000 1.000000 0.000000
v 2.000000 0.000000 0.000000
v -2.000000 0.000000 0.000000
v -4.000000 1.000000 0.000000
v -4.000000 -1.000000 0.000000
s off
f 21 1 37
f 37 1 36
f 36 1 35
f 35 1 20
f 35 20 19
f 34 35 19
f 34 19 18
f 34 18 17
f 33 34 17
f 33 17 16
f 32 33 16
f 32 16 15
f 31 32 15
f 31 15 14
f 30 31 14
f 13 30 14
f 50 68 69
f 50 69 51
f 69 52 51
f 69 70 52
f 70 53 52
f 70 71 53
f 71 54 53
f 71 72 54
f 72 55 54
f 72 73 55
f 73 56 55
f 73 57 56
f 73 74 57
f 74 38 57
f 74 58 38
f 74 75 58
f 42 60 61
f 42 61 62
f 42 62 63
f 42 63 43
f 63 44 43
f 63 64 44
f 64 45 44
f 64 46 45
f 64 65 46
f 65 47 46
f 65 66 47
f 66 48 47
f 66 67 48
f 67 49 48
f 67 68 49
f 68 50 49
f 78 79 80
f 77 79 78
f 82 83 84
f 81 83 82
f 85 87 86
f 88 90 89
f 1 21 60
f 59 1 60
f 59 60 42
f 59 40 39
f 59 41 40
f 59 42 41
f 29 30 13
f 29 13 12
f 29 12 11
f 28 29 11
f 28 11 10
f 27 28 10
f 27 10 9
f 26 27 9
f 26 9 8
f 25 26 8
f 25 8 7
f 25 7 6
f 24 25 6
f 5 24 6
f 5 22 24
f 22 23 24
f 76 3 2
f 76 4 3
f 76 5 4
f 76 38 5
f 38 22 5
f 38 58 22
f 91 93 92
f 94 96 95
