# .scale 50 50
# .ballSpawn 0 0
# .redSpawn -5 0
# .redGoal -11 0
# .blueSpawn 5 0
# .blueGoal 11 0
# .slingpoint 8.5 5.5
# .slingpoint -8.5 -5.5
# .slingpoint 8.5 -5.5
# .slingpoint -8.5 5.5
# Blender v2.65 (sub 0) OBJ File: 'rink2.blend'
# www.blender.org
v -15.000000 -5.000000 0.000000
v 13.000000 -5.000000 0.000000
v 16.000000 -2.000000 0.000000
v -4.000000 -5.000000 0.000000
v 15.000000 5.000000 0.000000
v -2.000000 -5.000000 0.000000
v 1.000000 2.000000 0.000000
v -13.000000 -5.000000 0.000000
v 2.000000 -5.000000 0.000000
v -12.000000 -8.000000 0.000000
v 1.000000 -2.000000 0.000000
v 8.000000 6.000000 0.000000
v -18.000000 9.000000 0.000000
v 0.000000 2.000000 0.000000
v 16.000000 2.000000 0.000000
v -5.000000 -8.000000 0.000000
v -15.000000 5.000000 0.000000
v 15.000000 -5.000000 0.000000
v 5.000000 8.000000 0.000000
v -16.000000 -2.000000 0.000000
v 18.000000 -9.000000 0.000000
v 9.000000 6.000000 0.000000
v -1.000000 2.000000 0.000000
v 9.000000 -6.000000 0.000000
v 12.000000 8.000000 0.000000
v -2.000000 5.000000 0.000000
v -1.000000 -2.000000 0.000000
v -16.000000 2.000000 0.000000
v 13.000000 5.000000 0.000000
v -9.000000 -6.000000 0.000000
v -13.000000 5.000000 0.000000
v 2.000000 5.000000 0.000000
v -8.000000 -6.000000 0.000000
v 4.000000 5.000000 0.000000
v 4.000000 -5.000000 0.000000
v 12.000000 -8.000000 0.000000
v 15.000000 0.000000 0.000000
v 18.000000 9.000000 0.000000
v 5.000000 -8.000000 0.000000
v 0.000000 -2.000000 0.000000
v 8.000000 -6.000000 0.000000
v -5.000000 8.000000 0.000000
v -18.000000 -9.000000 0.000000
v -15.000000 0.000000 0.000000
v -12.000000 8.000000 0.000000
v -4.000000 5.000000 0.000000
v -8.000000 6.000000 0.000000
v -9.000000 6.000000 0.000000
s off
f 2 21 36
f 29 25 38
f 21 2 18
f 43 1 8
f 13 31 17
f 15 5 38
f 15 38 21
f 37 15 3
f 15 21 3
f 21 18 3
f 8 10 43
f 38 45 13
f 38 25 45
f 25 42 45
f 19 46 42
f 25 19 42
f 19 34 46
f 34 26 46
f 32 23 26
f 34 32 26
f 32 7 23
f 7 14 23
f 31 13 45
f 43 13 28
f 13 17 28
f 43 28 20
f 28 44 20
f 20 1 43
f 6 27 40
f 6 40 11
f 6 11 9
f 16 4 6
f 16 6 9
f 16 9 35
f 16 35 39
f 43 10 16
f 43 16 39
f 43 39 36
f 21 43 36
f 38 5 29
f 24 41 12
f 24 12 22
f 33 30 48
f 33 48 47
